//
// The Austria library is copyright (c) Gianni Mariani 2004.
// 
// Grant Of License.  Grants to LICENSEE the non-exclusive right to use the Austria
// library subject to the terms of the LGPL.
// 
// A copy of the license is available in this directory or one may be found at this URL:
// 	http://www.gnu.org/copyleft/lesser.txt
// 
/**
 * at_gx86_os.cpp.i
 *
 */


#include "at_win32_os.cpp"
